{
    "dataset": {
        "about": "Man of Match, Soccer game, FIFA, best player, team, MVP, Goal, opponent",
        "description": ["FIFA", "worldcup", "Soccer game", "European Cup"]
    },
    "required": [
        {
            "type": "dataframe_columns",
            "name": [
              "Team"
            ]
        },
        {
            "type": "dataframe_columns",
            "name": [
              "Opponent"
            ]
        }
    ],
    "desired": [
        {
            "type": "generic_entity",
            "about": "Goal, Score",
            "variable_syntactic_type": [
                "http://schema.org/Integer"
            ]
        },
        {
            "type": "generic_entity",
            "about": "fouls"
        },
        {
            "type": "generic_entity",
            "about": "yellow card, red card",
            "variable_syntactic_type": [
                "http://schema.org/Integer"
            ]
        },
        {
            "type": "generic_entity",
            "about": "attempt, shoot, target",
            "variable_syntactic_type": [
                "http://schema.org/Integer"
            ]
        },
        {
            "type": "generic_entity",
            "about": "player",
            "variable_syntactic_type": [
                "http://schema.org/Person"
            ]
        }
    ]
}
